{"metadata":
 {"gobiiJobStatus":"CV_PROGRESSSTATUS_NOSTATUS",
  "dataset":{"id":"10", "name":"sim_dominant_ds_02"},
  "gobiiFile":
  {"source":
   "\/data\/gobii_bundle\/crops\/zoan\/files\/data_20180625_112809_sim_dominant_proj_01_dataset",
   "destination":
   "\/data\/gobii_bundle\/crops\/zoan\/loader\/digest\/data_20180625_112809_sim_dominant_proj_01_dataset",
   "delimiter":"\\t",
   "gobiiFileType":"GENERIC",
   "requireDirectoriesToExist":false,
   "createSource":false},
  "project":{"id":"6", "name":"sim_dominant_proj_01"},
  "contactEmail":"v.calaminos@irri.org",
  "experiment":{"id":"8", "name":"sim_dominant_exp_02"},
  "datasetOrientationType":"MARKER_FAST",
  "qcCheck":false,
  "mapset":{"id":"3", "name":"sim_dominant"},
  "contactId":"67",
  "jobPayloadType":"CV_PAYLOADTYPE_MATRIX",
  "platform":{"id":"8", "name":"Dart_clone"},
  "gobiiCropType":"zoan",
  "datasetType":{"id":null, "name":"DOMINANT_NON_NUCLEOTIDE"}},
 "instructions":
 [{"table":"dataset_marker",
   "gobiiFileColumns":
   [{"gobiiColumnType":"CONSTANT",
     "name":"platform_id",
     "constantValue":"8",
     "subcolumn":false},
    {"gobiiColumnType":"CONSTANT",
     "name":"dataset_id",
     "constantValue":"10",
     "subcolumn":false},
    {"gobiiColumnType":"CSV_COLUMN",
     "rCoord":1,
     "cCoord":0,
     "name":"marker_name",
     "subcolumn":false},
    {"gobiiColumnType":"AUTOINCREMENT",
     "name":"marker_idx",
     "subcolumn":false}]},
  {"table":"dataset_dnarun",
   "gobiiFileColumns":
   [{"gobiiColumnType":"CONSTANT",
     "name":"platform_id",
     "constantValue":"8",
     "subcolumn":false},
    {"gobiiColumnType":"CONSTANT",
     "name":"experiment_id",
     "constantValue":"8",
     "subcolumn":false},
    {"gobiiColumnType":"CONSTANT",
     "name":"dataset_id",
     "constantValue":"10",
     "subcolumn":false},
    {"gobiiColumnType":"CSV_ROW",
     "rCoord":0,
     "cCoord":1,
     "name":"dnarun_name",
     "subcolumn":false},
    {"gobiiColumnType":"AUTOINCREMENT",
     "name":"dnarun_idx",
     "subcolumn":false}]},
  {"table":"matrix",
   "gobiiFileColumns":
   [{"gobiiColumnType":"CSV_BOTH",
     "rCoord":1,
     "cCoord":1,
     "name":"matrix",
     "subcolumn":false}]}]}
