{"metadata":
 {"gobiiJobStatus":"CV_PROGRESSSTATUS_NOSTATUS",
  "dataset":{},
  "gobiiFile":
  {"source":
   "\/data\/gobii_bundle\/crops\/dev\/files\/data_20180614_125648_daw279",
   "destination":
   "\/data\/gobii_bundle\/crops\/dev\/loader\/digest\/data_20180614_125648_daw279",
   "delimiter":"\\t",
   "gobiiFileType":"GENERIC",
   "requireDirectoriesToExist":false,
   "createSource":false},
  "project":{"id":14, "name":"Deb_Proj1_FlexQuery"},
  "contactEmail":"daw279@cornell.edu",
  "experiment":{"id":31, "name":"Deb_Proj1_Exp2_KASP_FQ"},
  "datasetOrientationType":"MARKER_FAST",
  "qcCheck":false,
  "mapset":{},
  "contactId":19,
  "jobPayloadType":"CV_PAYLOADTYPE_SAMPLES",
  "platform":{},
  "gobiiCropType":"dev",
  "datasetType":{"id":null, "name":"IUPAC"}},
 "instructions":
 [{"table":"germplasm",
   "gobiiFileColumns":
   [{"gobiiColumnType":"CONSTANT",
     "constantValue":"57",
     "name":"status",
     "subcolumn":false},
    {"gobiiColumnType":"CSV_COLUMN",
     "name":"type_name",
     "subcolumn":false,
     "cCoord":6,
     "rCoord":1},
    {"gobiiColumnType":"CSV_COLUMN",
     "name":"species_name",
     "subcolumn":false,
     "cCoord":7,
     "rCoord":1},
    {"gobiiColumnType":"CSV_COLUMN",
     "name":"name",
     "subcolumn":false,
     "cCoord":0,
     "rCoord":1},
    {"gobiiColumnType":"CSV_COLUMN",
     "name":"external_code",
     "subcolumn":false,
     "cCoord":1,
     "rCoord":1}]},
  {"table":"germplasm_prop",
   "gobiiFileColumns":
   [{"gobiiColumnType":"CSV_COLUMN",
     "name":"external_code",
     "subcolumn":false,
     "cCoord":1,
     "rCoord":1},
    {"gobiiColumnType":"CONSTANT",
     "subcolumnDelimiter":"",
     "constantValue":"50:",
     "name":"props",
     "subcolumn":false},
    {"gobiiColumnType":"CSV_COLUMN",
     "subcolumnDelimiter":"",
     "name":"value1",
     "subcolumn":true,
     "cCoord":8,
     "rCoord":1}]},
  {"table":"dnasample",
   "gobiiFileColumns":
   [{"gobiiColumnType":"CONSTANT",
     "constantValue":"14",
     "name":"project_id",
     "subcolumn":false},
    {"gobiiColumnType":"CSV_COLUMN",
     "name":"platename",
     "subcolumn":false,
     "cCoord":3,
     "rCoord":1},
    {"gobiiColumnType":"CSV_COLUMN",
     "name":"num",
     "subcolumn":false,
     "cCoord":4,
     "rCoord":1},
    {"gobiiColumnType":"CSV_COLUMN",
     "name":"name",
     "subcolumn":false,
     "cCoord":2,
     "rCoord":1},
    {"gobiiColumnType":"CSV_COLUMN",
     "name":"external_code",
     "subcolumn":false,
     "cCoord":1,
     "rCoord":1},
    {"gobiiColumnType":"CONSTANT",
     "constantValue":"57",
     "name":"status",
     "subcolumn":false},
    {"gobiiColumnType":"CSV_COLUMN",
     "name":"uuid",
     "subcolumn":false,
     "cCoord":1,
     "rCoord":1}]},
  {"table":"dnasample_prop",
   "gobiiFileColumns":
   [{"gobiiColumnType":"CSV_COLUMN",
     "name":"dnasample_name",
     "subcolumn":false,
     "cCoord":2,
     "rCoord":1},
    {"gobiiColumnType":"CSV_COLUMN",
     "name":"external_code",
     "subcolumn":false,
     "cCoord":1,
     "rCoord":1},
    {"gobiiColumnType":"CSV_COLUMN",
     "name":"num",
     "subcolumn":false,
     "cCoord":4,
     "rCoord":1},
    {"gobiiColumnType":"CONSTANT",
     "constantValue":"14",
     "name":"project_id",
     "subcolumn":false},
    {"gobiiColumnType":"CONSTANT",
     "subcolumnDelimiter":"",
     "constantValue":"91:",
     "name":"props",
     "subcolumn":false},
    {"gobiiColumnType":"CSV_COLUMN",
     "subcolumnDelimiter":"",
     "name":"value1",
     "subcolumn":true,
     "cCoord":9,
     "rCoord":1},
    {"gobiiColumnType":"CONSTANT",
     "subcolumnDelimiter":"",
     "constantValue":",",
     "name":"comma1",
     "subcolumn":true},
    {"gobiiColumnType":"CONSTANT",
     "subcolumnDelimiter":"",
     "constantValue":"86:",
     "name":"key2",
     "subcolumn":true},
    {"gobiiColumnType":"CSV_COLUMN",
     "subcolumnDelimiter":"",
     "name":"value2",
     "subcolumn":true,
     "cCoord":10,
     "rCoord":1}]},
  {"table":"dnarun",
   "gobiiFileColumns":
   [{"gobiiColumnType":"CONSTANT",
     "constantValue":"14",
     "name":"project_id",
     "subcolumn":false},
    {"gobiiColumnType":"CONSTANT",
     "constantValue":"31",
     "name":"experiment_id",
     "subcolumn":false},
    {"gobiiColumnType":"CSV_COLUMN",
     "name":"platename",
     "subcolumn":false,
     "cCoord":3,
     "rCoord":1},
    {"gobiiColumnType":"CSV_COLUMN",
     "name":"dnasample_name",
     "subcolumn":false,
     "cCoord":2,
     "rCoord":1},
    {"gobiiColumnType":"CSV_COLUMN",
     "name":"num",
     "subcolumn":false,
     "cCoord":4,
     "rCoord":1},
    {"gobiiColumnType":"CSV_COLUMN",
     "name":"name",
     "subcolumn":false,
     "cCoord":5,
     "rCoord":1}]}]}
