{"metadata":
 {"gobiiJobStatus":"CV_PROGRESSSTATUS_NOSTATUS",
  "dataset":
  {"id":50, "name":"Deb_Proj1_Exp2_KASP_FlexQuery_dom_1-10_DS1"},
  "gobiiFile":
  {"source":
   "\/data\/gobii_bundle\/crops\/dev\/files\/data_20180614_160309_daw279",
   "destination":
   "\/data\/gobii_bundle\/crops\/dev\/loader\/digest\/data_20180614_160309_daw279",
   "delimiter":"\\t",
   "gobiiFileType":"GENERIC",
   "requireDirectoriesToExist":false,
   "createSource":false},
  "project":{"id":14, "name":"Deb_Proj1_FlexQuery"},
  "contactEmail":"daw279@cornell.edu",
  "experiment":{"id":31, "name":"Deb_Proj1_Exp2_KASP_FQ"},
  "datasetOrientationType":"MARKER_FAST",
  "qcCheck":false,
  "mapset":{"id":2, "name":"Test_Physical"},
  "contactId":19,
  "jobPayloadType":"CV_PAYLOADTYPE_MATRIX",
  "platform":{"id":4, "name":"KASP"},
  "gobiiCropType":"dev",
  "datasetType":{"id":null, "name":"DOMINANT_NON_NUCLEOTIDE"}},
 "instructions":
 [{"table":"dataset_marker",
   "gobiiFileColumns":
   [{"gobiiColumnType":"CONSTANT",
     "constantValue":"4",
     "name":"platform_id",
     "subcolumn":false},
    {"gobiiColumnType":"CONSTANT",
     "constantValue":"50",
     "name":"dataset_id",
     "subcolumn":false},
    {"gobiiColumnType":"CSV_COLUMN",
     "name":"marker_name",
     "subcolumn":false,
     "cCoord":0,
     "rCoord":1},
    {"gobiiColumnType":"AUTOINCREMENT",
     "name":"marker_idx",
     "subcolumn":false}]},
  {"table":"dataset_dnarun",
   "gobiiFileColumns":
   [{"gobiiColumnType":"CONSTANT",
     "constantValue":"4",
     "name":"platform_id",
     "subcolumn":false},
    {"gobiiColumnType":"CONSTANT",
     "constantValue":"31",
     "name":"experiment_id",
     "subcolumn":false},
    {"gobiiColumnType":"CONSTANT",
     "constantValue":"50",
     "name":"dataset_id",
     "subcolumn":false},
    {"gobiiColumnType":"CSV_ROW",
     "name":"dnarun_name",
     "subcolumn":false,
     "cCoord":1,
     "rCoord":0},
    {"gobiiColumnType":"AUTOINCREMENT",
     "name":"dnarun_idx",
     "subcolumn":false}]},
  {"table":"matrix",
   "gobiiFileColumns":
   [{"gobiiColumnType":"CSV_BOTH",
     "name":"matrix",
     "subcolumn":false,
     "cCoord":1,
     "rCoord":1}]}]}
